Project 1: Explanantory Data Analysis
…
Visualization

survivor %>% summarize(cor(immunity_idols_won, total_votes_received, use="pair"))

##   cor(immunity_idols_won, total_votes_received, use = "pair")
## 1                                                  -0.1503065

cormat <- survivor %>% select_if(is.numeric) %>% cor(use="pair")

## Warning in cor(., use = "pair"): the standard deviation is zero

cormat %>% as.data.frame() %>% rownames_to_column("var1") %>% pivot_longer(-1, names_to="var2", values_to="correlation")

## # A tibble: 196 x 3
##    var1   var2                 correlation
##    <chr>  <chr>                      <dbl>
##  1 season season                   1      
##  2 season age                      0.0805 
##  3 season day                     -0.0916 
##  4 season order                    0.00435
##  5 season total_votes_received     0.155  
##  6 season immunity_idols_won      -0.0477 
##  7 season M.                      NA      
##  8 season F.                      NA      
##  9 season held                     0.0253 
## 10 season played                   0.159  
## # … with 186 more rows
…
